Predator-prey dynamics · Agents.jl
…
sheep(a) = a isa Sheep
wolf(a) = a isa Wolf
count_grass(model) = count(model.fully_grown)

count_grass (generic function with 1 method)
Run simulation:

sheepwolfgrass = initialize_model()
steps = 1000
adata = [(sheep, count), (wolf, count)]
mdata = [count_grass]
adf, mdf = run!(sheepwolfgrass, sheepwolf_step!, grass_step!, steps; adata, mdata)

(1001×3 DataFrame
  Row │ step   count_sheep  count_wolf
      │ Int64  Int64        Int64
──────┼────────────────────────────────
    1 │     0          100          50
    2 │     1           89          52
    3 │     2           84          51
    4 │     3           83          49
    5 │     4           84          53
    6 │     5           81          53
    7 │     6           73          53
    8 │     7           67          52
  ⋮   │   ⋮         ⋮           ⋮
  995 │   994           35           0
  996 │   995           35           0
  997 │   996           36           0
  998 │   997           38           0
  999 │   998           36           0
 1000 │   999           37           0
 1001 │  1000           38           0
                       986 rows omitted, 1001×2 DataFrame
…
