Predator-Prey · Agents.jl
…
sheep(a) = a.type == :sheep
wolves(a) = a.type == :wolf
count_grass(model) = count(model.fully_grown)

count_grass (generic function with 1 method)
Run simulation:

model = initialize_model()
n = 500
adata = [(sheep, count), (wolves, count)]
mdata = [count_grass]
adf, mdf = run!(model, sheepwolf_step!, grass_step!, n; adata, mdata)

(501×3 DataFrame
 Row │ step   count_sheep  count_wolves
     │ Int64  Int64        Int64
─────┼──────────────────────────────────
   1 │     0          100            50
   2 │     1           88            53
   3 │     2           87            54
   4 │     3           77            58
   5 │     4           69            57
   6 │     5           54            60
   7 │     6           45            59
   8 │     7           40            59
  ⋮  │   ⋮         ⋮            ⋮
 495 │   494           37             0
 496 │   495           36             0
 497 │   496           37             0
 498 │   497           38             0
 499 │   498           37             0
 500 │   499           37             0
 501 │   500           37             0
                        486 rows omitted, 501×2 DataFrame
…
