Opinion spread · Agents.jl
…
agent_step! (generic function with 1 method)
Running the model
First, we create a stopping condition, which runs the model until all agents stabilize.

rununtil(model, s) = count(a -> a.stabilized, allagents(model)) == length(positions(model))

rununtil (generic function with 1 method)
Then we create our model, run it and collect some information

model = create_model(nopinions = 3, levels_per_opinion = 4)

agentdata, _ = run!(model, agent_step!, dummystep, rununtil, adata = [(:stabilized, count)])

(192×2 DataFrame
 Row │ step   count_stabilized
     │ Int64  Int64
─────┼─────────────────────────
   1 │     0                 0
   2 │     1                76
   3 │     2                77
   4 │     3                72
   5 │     4                76
   6 │     5                71
   7 │     6                80
   8 │     7                76
  ⋮  │   ⋮           ⋮
 186 │   185                93
 187 │   186                95
 188 │   187                98
 189 │   188                99
 190 │   189                99
 191 │   190                99
 192 │   191               100
               177 rows omitted, 0×0 DataFrame)
…
