- · Agents.jl
…
adata = [(a -> a isa X, count) for X in (Rock, Paper, Scissors)]

run!(model, 10.0; adata, when = 0.2)

(51×4 DataFrame
 Row │ step     count_#17_X=Main ⋯
     │ Float64  Int64                                                          ⋯
─────┼──────────────────────────────────────────────────────────────────────────
   1 │     1.0                                                                 ⋯
   2 │     1.2
   3 │     1.4
   4 │     1.6
   5 │     1.8                                                                 ⋯
   6 │     2.0
   7 │     2.2
   8 │     2.4
  ⋮  │    ⋮                                      ⋮                             ⋱
  45 │     9.8                                                                 ⋯
  46 │    10.0
  47 │    10.2
  48 │    10.4
  49 │    10.6                                                                 ⋯
  50 │    10.8
  51 │    11.0
                                                   3 columns and 36 rows omitted, 0×0 DataFrame)
…
