Predator-prey dynamics · Agents.jl
…
sheep(a) = a isa Sheep
wolf(a) = a isa Wolf
count_grass(model) = count(model.fully_grown)

count_grass (generic function with 1 method)
Run simulation:

sheepwolfgrass = initialize_model()
steps = 1000
adata = [(sheep, count), (wolf, count)]
mdata = [count_grass]
adf, mdf = run!(sheepwolfgrass, sheepwolf_step!, grass_step!, steps; adata, mdata)

(1001×3 DataFrame
  Row │ step   count_sheep  count_wolf
      │ Int64  Int64        Int64
──────┼────────────────────────────────
    1 │     0          100          50
    2 │     1           84          52
    3 │     2           68          52
    4 │     3           67          52
    5 │     4           58          56
    6 │     5           51          59
    7 │     6           39          62
    8 │     7           40          62
  ⋮   │   ⋮         ⋮           ⋮
  995 │   994            0           0
  996 │   995            0           0
  997 │   996            0           0
  998 │   997            0           0
  999 │   998            0           0
 1000 │   999            0           0
 1001 │  1000            0           0
                       986 rows omitted, 1001×2 DataFrame
…
