Predator-Prey · Agents.jl
…
sheep(a) = a.type == :sheep
wolves(a) = a.type == :wolf
count_grass(model) = count(model.fully_grown)

count_grass (generic function with 1 method)
Run simulation:

model = initialize_model()
n = 500
adata = [(sheep, count), (wolves, count)]
mdata = [count_grass]
adf, mdf = run!(model, sheepwolf_step!, grass_step!, n; adata, mdata)

(501×3 DataFrame
 Row │ step   count_sheep  count_wolves
     │ Int64  Int64        Int64
─────┼──────────────────────────────────
   1 │     0          100            50
   2 │     1           93            51
   3 │     2           90            50
   4 │     3           77            50
   5 │     4           69            51
   6 │     5           63            53
   7 │     6           53            58
   8 │     7           46            61
  ⋮  │   ⋮         ⋮            ⋮
 495 │   494            0             0
 496 │   495            0             0
 497 │   496            0             0
 498 │   497            0             0
 499 │   498            0             0
 500 │   499            0             0
 501 │   500            0             0
                        486 rows omitted, 501×2 DataFrame
…
