Predator-prey dynamics · Agents.jl
…
sheep(a) = a isa Sheep
wolf(a) = a isa Wolf
count_grass(model) = count(model.fully_grown)

count_grass (generic function with 1 method)
Run simulation:

sheepwolfgrass = initialize_model()
steps = 1000
adata = [(sheep, count), (wolf, count)]
mdata = [count_grass]
adf, mdf = run!(sheepwolfgrass, sheepwolf_step!, grass_step!, steps; adata, mdata)

(1001×3 DataFrame
  Row │ step   count_sheep  count_wolf
      │ Int64  Int64        Int64
──────┼────────────────────────────────
    1 │     0          100          50
    2 │     1           83          52
    3 │     2           70          52
    4 │     3           66          50
    5 │     4           58          52
    6 │     5           44          54
    7 │     6           38          54
    8 │     7           35          56
  ⋮   │   ⋮         ⋮           ⋮
  995 │   994           29           0
  996 │   995           29           0
  997 │   996           28           0
  998 │   997           30           0
  999 │   998           31           0
 1000 │   999           31           0
 1001 │  1000           28           0
                       986 rows omitted, 1001×2 DataFrame
…
