Predator-prey dynamics · Agents.jl
…
sheep(a) = a isa Sheep
wolf(a) = a isa Wolf
count_grass(model) = count(model.fully_grown)

count_grass (generic function with 1 method)
Run simulation:

sheepwolfgrass = initialize_model()
steps = 1000
adata = [(sheep, count), (wolf, count)]
mdata = [count_grass]
adf, mdf = run!(sheepwolfgrass, sheepwolf_step!, grass_step!, steps; adata, mdata)

(1001×3 DataFrame
  Row │ step   count_sheep  count_wolf
      │ Int64  Int64        Int64
──────┼────────────────────────────────
    1 │     0          100          50
    2 │     1           81          53
    3 │     2           64          53
    4 │     3           57          54
    5 │     4           54          55
    6 │     5           43          57
    7 │     6           36          59
    8 │     7           32          62
  ⋮   │   ⋮         ⋮           ⋮
  995 │   994           39           0
  996 │   995           41           0
  997 │   996           41           0
  998 │   997           40           0
  999 │   998           41           0
 1000 │   999           42           0
 1001 │  1000           38           0
                       986 rows omitted, 1001×2 DataFrame
…
