Opinion spread · Agents.jl
…
agent_step! (generic function with 1 method)
Running the model
First, we create a stopping condition, which runs the model until all agents stabilize.

rununtil(model, s) = count(a -> a.stabilized, allagents(model)) == length(positions(model))

rununtil (generic function with 1 method)
Then we create our model, run it and collect some information

model = create_model(nopinions = 3, levels_per_opinion = 4)

agentdata, _ = run!(model, agent_step!, dummystep, rununtil, adata = [(:stabilized, count)])

(337×2 DataFrame
 Row │ step   count_stabilized
     │ Int64  Int64
─────┼─────────────────────────
   1 │     0                 0
   2 │     1                73
   3 │     2                79
   4 │     3                83
   5 │     4                87
   6 │     5                67
   7 │     6                80
   8 │     7                79
  ⋮  │   ⋮           ⋮
 331 │   330                87
 332 │   331                89
 333 │   332                93
 334 │   333                99
 335 │   334                96
 336 │   335                98
 337 │   336               100
               322 rows omitted, 0×0 DataFrame)
…
